web\filters\AdminFiltr.class
repository\Repository.class
domain\UserType.class
web\Log.class
repository\UserRepository.class
web\ShowUsers.class
web\Chmod.class
web\filters\RegularFilter.class
web\filters\DataInSessionFilter.class
web\AddUser.class
web\filters\SiteFilter.class
web\filters\LogFilter.class
